Kapitel 3 Einen Datensatz erkunden | Data Science für normale Anwender*innen
…
3.4.2 Intervallskalierte Spalten

Für intervallskalierte Spalten, also Spalten mit Zahlenwerten, eignen sich die Funktionen distinct und count nur bedingt. Oft sind es zu viele unterschiedliche Werte und das reine Zählen bringt nicht viel Aufschluss. Wenn wir distinct auf die Spalte weight_kg anwenden, erhalten wir zum Beispiel 422 unterschiedliche Werte:

pokemon %>%
  distinct(weight_kg)

## # A tibble: 422 x 1
##    weight_kg
##        <dbl>
##  1       6.9
##  2      13  
##  3     100  
##  4       8.5
##  5      19  
##  6      90.5
##  7       9  
##  8      22.5
##  9      85.5
## 10       2.9
## # ... with 412 more rows
…
