Kapitel 8 Fallstudie Orangenlimonade | Data Science für normale Anwender*innen
…
Der Aufbau der Spaltennamen gibt Aufschluss darüber, warum der Datensatz so viele Spalten beinhaltet. Jede Frage und deren Antworten sind in mehr als einer Spalte gespeichert. Das lässt sich an der ersten Frage bereits gut zeigen. Für sie sind die Spalten f1_gekauft, f1_getrunken und f1_weder_noch reserviert. Für jede Antwortoption der Frage 1 “Haben Sie in den letzten 12 Monaten Orangenlimonade gekauft oder getrunken? (Mehrfachnennung möglich)” ist eine Spalte vorgesehen. Wurde die entsprechende Antwortoption angekreuzt, beinhaltet die Spalte den Wert 1. Wenn nicht, den Wert 0. Das können wir überprüfen, indem wir alle Spalten auswählen, die mit “f1_” beginnen.

limo %>%
  select(starts_with("f1_"))

## # A tibble: 421 x 3
##    f1_gekauft f1_getrunken f1_weder_noch
##         <dbl>        <dbl>         <dbl>
##  1          1            1             0
##  2          1            1             0
##  3          1            1             0
##  4          1            1             0
##  5          0            1             0
##  6          1            1             0
##  7          0            1             0
##  8          1            1             0
##  9          1            1             0
## 10          1            0             0
## # ... with 411 more rows
…
