Kapitel 6 Spalten auswählen mit select | Data Science für normale Anwender*innen
…
pokemon %>% ncol()

## [1] 41

Es sind also 41 Spalten. Genug um die wichtigsten Funktionen für das Auswählen von Spalten zu zeigen.

6.2 Bestimmte Spalten nach Namen auswählen

Die Funktion select verwenden wir für das Auswählen einer Untermenge an Spalten. Wir können im einfachsten Fall einfach die gewünschten Spalten mit Kommata getrennt auflisten:

pokemon %>%
  select(name, type1)

## # A tibble: 801 x 2
##    name       type1
##    <chr>      <chr>
##  1 Bulbasaur  grass
##  2 Ivysaur    grass
##  3 Venusaur   grass
##  4 Charmander fire 
##  5 Charmeleon fire 
##  6 Charizard  fire 
##  7 Squirtle   water
##  8 Wartortle  water
##  9 Blastoise  water
## 10 Caterpie   bug  
## # ... with 791 more rows

Dabei können wir beliebig viele Spalten in die Liste aufnehmen:

pokemon %>%
  select(name, type1, type2, is_legendary)

## # A tibble: 801 x 4
##    name       type1 type2  is_legendary
##    <chr>      <chr> <chr>         <dbl>
##  1 Bulbasaur  grass poison            0
##  2 Ivysaur    grass poison            0
##  3 Venusaur   grass poison            0
##  4 Charmander fire  <NA>              0
##  5 Charmeleon fire  <NA>              0
##  6 Charizard  fire  flying            0
##  7 Squirtle   water <NA>              0
##  8 Wartortle  water <NA>              0
##  9 Blastoise  water <NA>              0
## 10 Caterpie   bug   <NA>              0
## # ... with 791 more rows

6.3 Spalten aus der Auswahl ausschließen

Wollen wir fast alle verfügbaren Spalten auswählen, so ist es effizienter, die Spalten zu nennen, die wir ausschließen wollen. Das können wir mit dem Minus-Symbol erreichen:

pokemon %>%
  select(-is_legendary)

6.4 Die letzte oder n-letzten Spalten auswählen

pokemon %>%
  select(last_col())

## # A tibble: 801 x 1
##    is_legendary
##           <dbl>
##  1            0
##  2            0
##  3            0
##  4            0
##  5            0
##  6            0
##  7            0
##  8            0
##  9            0
## 10            0
## # ... with 791 more rows
…
is.numeric prüft, ob eine Spalte oder ein Wert numerisch ist.

is.character prüft, ob es sich um eine alphanumerische Spalte handelt (Zeichenketten oder Strings).

is.logical prüft, ob es sich um eine Spalte mit Wahrheitswerten handelt (Bool’scher Datentyp).

is.factor prüft, ob es sich bei einer Spalte um einen Faktor mit einer fest definierten Anzahl von Ausprägungen handelt.

Um beispielsweise alle numersichen Spalten im Pokémon-Datensatz auszuwählen, können wir den folgenden Aufruf verwenden:

pokemon %>% 
  select(where(is.numeric))

## # A tibble: 801 x 34
##    against_bug against_dark against_dragon against_electric against_fairy
##          <dbl>        <dbl>          <dbl>            <dbl>         <dbl>
##  1        1               1              1              0.5           0.5
##  2        1               1              1              0.5           0.5
##  3        1               1              1              0.5           0.5
##  4        0.5             1              1              1             0.5
##  5        0.5             1              1              1             0.5
##  6        0.25            1              1              2             0.5
##  7        1               1              1              2             1  
##  8        1               1              1              2             1  
##  9        1               1              1              2             1  
## 10        1               1              1              1             1  
## # ... with 791 more rows, and 29 more variables: against_fight <dbl>,
## #   against_fire <dbl>, against_flying <dbl>, against_ghost <dbl>,
## #   against_grass <dbl>, against_ground <dbl>, against_ice <dbl>,
## #   against_normal <dbl>, against_poison <dbl>, against_psychic <dbl>,
## #   against_rock <dbl>, against_steel <dbl>, against_water <dbl>, attack <dbl>,
## #   base_egg_steps <dbl>, base_happiness <dbl>, base_total <dbl>,
## #   defense <dbl>, experience_growth <dbl>, height_m <dbl>, hp <dbl>, ...
…
